\relax 
\providecommand\hyper@newdestlabel[2]{}
\providecommand\HyperFirstAtBeginDocument{\AtBeginDocument}
\HyperFirstAtBeginDocument{\ifx\hyper@anchor\@undefined
\global\let\oldcontentsline\contentsline
\gdef\contentsline#1#2#3#4{\oldcontentsline{#1}{#2}{#3}}
\global\let\oldnewlabel\newlabel
\gdef\newlabel#1#2{\newlabelxx{#1}#2}
\gdef\newlabelxx#1#2#3#4#5#6{\oldnewlabel{#1}{{#2}{#3}}}
\AtEndDocument{\ifx\hyper@anchor\@undefined
\let\contentsline\oldcontentsline
\let\newlabel\oldnewlabel
\fi}
\fi}
\global\let\hyper@last\relax 
\gdef\HyperFirstAtBeginDocument#1{#1}
\providecommand\HyField@AuxAddToFields[1]{}
\providecommand\HyField@AuxAddToCoFields[2]{}
\@writefile{toc}{\contentsline {section}{\numberline {1}R\IeC {\'E}SUM\IeC {\'E}}{1}{section.1}\protected@file@percent }
\newlabel{sec:orgca764b5}{{1}{1}{RÉSUMÉ}{section.1}{}}
\@writefile{toc}{\contentsline {subsection}{\numberline {1.1}D\IeC {\'e}finition}{1}{subsection.1.1}\protected@file@percent }
\newlabel{sec:orgd7eaefe}{{1.1}{1}{Définition}{subsection.1.1}{}}
\@writefile{toc}{\contentsline {subsection}{\numberline {1.2}Informations n\IeC {\'e}cessaires}{2}{subsection.1.2}\protected@file@percent }
\newlabel{sec:orga516b88}{{1.2}{2}{Informations nécessaires}{subsection.1.2}{}}
\@writefile{toc}{\contentsline {subsubsection}{\numberline {1.2.1}La magnitude absolue de chaque \IeC {\'e}toile}{2}{subsubsection.1.2.1}\protected@file@percent }
\newlabel{sec:org3449c1c}{{1.2.1}{2}{La magnitude absolue de chaque étoile}{subsubsection.1.2.1}{}}
\@writefile{toc}{\contentsline {subsubsection}{\numberline {1.2.2}La temp\IeC {\'e}rature de surface}{2}{subsubsection.1.2.2}\protected@file@percent }
\newlabel{sec:orgd0ab65a}{{1.2.2}{2}{La température de surface}{subsubsection.1.2.2}{}}
\@writefile{toc}{\contentsline {section}{\numberline {2}CATALOGUES}{2}{section.2}\protected@file@percent }
\newlabel{sec:orgab04759}{{2}{2}{CATALOGUES}{section.2}{}}
\@writefile{toc}{\contentsline {subsection}{\numberline {2.1}Exemple avec le catalogue Hipparchos.}{2}{subsection.2.1}\protected@file@percent }
\newlabel{sec:org9898283}{{2.1}{2}{Exemple avec le catalogue Hipparchos}{subsection.2.1}{}}
\@writefile{toc}{\contentsline {subsubsection}{\numberline {2.1.1}Examen des donn\IeC {\'e}es obtenues}{3}{subsubsection.2.1.1}\protected@file@percent }
\newlabel{sec:org51e5ec1}{{2.1.1}{3}{Examen des données obtenues}{subsubsection.2.1.1}{}}
\@writefile{toc}{\contentsline {subsection}{\numberline {2.2}Exemple avec le catalogue "Parrallaxes and Proper Motions\ldots  {}."}{3}{subsection.2.2}\protected@file@percent }
\newlabel{sec:org292c0da}{{2.2}{3}{Exemple avec le catalogue "Parrallaxes and Proper Motions\ldots {}."}{subsection.2.2}{}}
\@writefile{toc}{\contentsline {subsubsection}{\numberline {2.2.1}Examen des donn\IeC {\'e}es obtenues}{4}{subsubsection.2.2.1}\protected@file@percent }
\newlabel{sec:orgc774444}{{2.2.1}{4}{Examen des données obtenues}{subsubsection.2.2.1}{}}
\@writefile{toc}{\contentsline {subsection}{\numberline {2.3}Une meilleure d\IeC {\'e}marche}{4}{subsection.2.3}\protected@file@percent }
\newlabel{sec:org6307afc}{{2.3}{4}{Une meilleure démarche}{subsection.2.3}{}}
\@writefile{toc}{\contentsline {subsection}{\numberline {2.4}Autres catalogues candidats}{5}{subsection.2.4}\protected@file@percent }
\newlabel{sec:org914c2e5}{{2.4}{5}{Autres catalogues candidats}{subsection.2.4}{}}
\@writefile{toc}{\contentsline {section}{\numberline {3}PR\IeC {\'E}PARATION DES DONN\IeC {\'E}ES}{5}{section.3}\protected@file@percent }
\newlabel{sec:org4d4d937}{{3}{5}{PRÉPARATION DES DONNÉES}{section.3}{}}
\@writefile{toc}{\contentsline {subsection}{\numberline {3.1}Premi\IeC {\`e}res d\IeC {\'e}cisions}{5}{subsection.3.1}\protected@file@percent }
\newlabel{sec:org78db123}{{3.1}{5}{Premières décisions}{subsection.3.1}{}}
\@writefile{toc}{\contentsline {subsubsection}{\numberline {3.1.1}Contraintes li\IeC {\'e}es au donn\IeC {\'e}es}{5}{subsubsection.3.1.1}\protected@file@percent }
\newlabel{sec:orge0a2ab8}{{3.1.1}{5}{Contraintes liées au données}{subsubsection.3.1.1}{}}
\@writefile{toc}{\contentsline {subsubsection}{\numberline {3.1.2}R\IeC {\'e}cup\IeC {\'e}ration dans un format facile \IeC {\`a} exploiter}{6}{subsubsection.3.1.2}\protected@file@percent }
\newlabel{sec:org805ced2}{{3.1.2}{6}{Récupération dans un format facile à exploiter}{subsubsection.3.1.2}{}}
